{
	"name": "Node.js",
	"build": {
		"dockerfile": "Dockerfile",
		// Update 'VARIANT' to pick a Node version: 10, 12, 14
		"args": { "VARIANT": "16-bullseye" }
	},

	// Add the IDs of extensions you want installed when the container is created.
	"extensions": [
		"dbaeumer.vscode-eslint"
	],

	// Use 'forwardPorts' to make a list of ports inside the container available locally.
	"forwardPorts": [3000],

	// Use 'postCreateCommand' to run commands after the container is created.
	"postCreateCommand": "sudo chown node node_modules",

	// Comment out connect as root instead. More info: https://aka.ms/vscode-remote/containers/non-root.
	"remoteUser": "node",
	"containerUser": "node",
	"workspaceMount": "source=${localWorkspaceFolder},target=/workspaces/${localWorkspaceFolderBasename},type=bind,Z",
	"runArgs": ["--userns=keep-id"],
	"mounts": [
    "source=try-node-node_modules,target=${containerWorkspaceFolder}/node_modules,type=volume"
	]
}
